<?xml version="1.0" encoding="utf-8"?>
<!-- Generator: Adobe Illustrator 23.0.6, SVG Export Plug-In . SVG Version: 6.00 Build 0)  -->
<svg version="1.1" id="Layer_1" xmlns="http://www.w3.org/2000/svg" xmlns:xlink="http://www.w3.org/1999/xlink" x="0px" y="0px"
	 width="50px" height="50px" viewBox="0 0 50 50" style="enable-background:new 0 0 50 50;" xml:space="preserve">
<style type="text/css">
	.st0{fill:#FFFFFF;}
</style>
<g>
	<g>
		<path d="M-442,2v46h-46V2H-442 M-441.5,1.5h-0.5h-46h-0.5V2v46v0.5h0.5h46h0.5V48V2V1.5L-441.5,1.5z"/>
	</g>
	<g>
		<g>
			<path d="M-484.8,12h5.1c1,0,1.7-0.8,1.7-1.7V5.2c0-0.9-0.8-1.7-1.7-1.7h-5.1c-1,0-1.7,0.8-1.7,1.7v5.1
				C-486.5,11.2-485.8,12-484.8,12z"/>
		</g>
		<g>
			<path d="M-477,2.5V13h-10.5V2.5H-477 M-476.5,2H-488v11.5h11.5V2L-476.5,2z"/>
		</g>
	</g>
	<g>
		<g>
			<path d="M-473.3,12h5.1c1,0,1.7-0.8,1.7-1.7V5.2c0-0.9-0.8-1.7-1.7-1.7h-5.1c-1,0-1.7,0.8-1.7,1.7v5.1
				C-475,11.2-474.2,12-473.3,12z"/>
		</g>
		<g>
			<path d="M-465.5,2.5V13H-476V2.5H-465.5 M-465,2h-11.5v11.5h11.5V2L-465,2z"/>
		</g>
	</g>
	<g>
		<g>
			<path d="M-479.8,16c0.4,0,0.7,0.3,0.7,0.7v5.1c0,0.4-0.3,0.7-0.7,0.7h-5.1c-0.4,0-0.7-0.3-0.7-0.7v-5.1c0-0.4,0.3-0.7,0.7-0.7
				L-479.8,16 M-479.8,15h-5.1c-1,0-1.7,0.8-1.7,1.7v5.1c0,1,0.8,1.7,1.7,1.7h5.1c1,0,1.7-0.8,1.7-1.7v-5.1
				C-478,15.8-478.8,15-479.8,15L-479.8,15z"/>
		</g>
		<g>
			<path d="M-477,14v10.5h-10.5V14H-477 M-476.5,13.5H-488V25h11.5V13.5L-476.5,13.5z"/>
		</g>
	</g>
	<g>
		<g>
			<path d="M-468.2,16c0.4,0,0.7,0.3,0.7,0.7v5.1c0,0.4-0.3,0.7-0.7,0.7h-5.1c-0.4,0-0.7-0.3-0.7-0.7v-5.1c0-0.4,0.3-0.7,0.7-0.7
				L-468.2,16 M-468.2,15h-5.1c-1,0-1.7,0.8-1.7,1.7v5.1c0,1,0.8,1.7,1.7,1.7h5.1c1,0,1.7-0.8,1.7-1.7v-5.1
				C-466.5,15.8-467.3,15-468.2,15L-468.2,15z"/>
		</g>
		<g>
			<path d="M-465.5,14v10.5H-476V14H-465.5 M-465,13.5h-11.5V25h11.5V13.5L-465,13.5z"/>
		</g>
	</g>
	<g>
		<g>
			<path d="M-461.8,12h5.1c1,0,1.7-0.8,1.7-1.7V5.2c0-0.9-0.8-1.7-1.7-1.7h-5.1c-1,0-1.7,0.8-1.7,1.7v5.1
				C-463.5,11.2-462.7,12-461.8,12z"/>
		</g>
		<g>
			<path d="M-454,2.5V13h-10.5V2.5H-454 M-453.5,2H-465v11.5h11.5V2L-453.5,2z"/>
		</g>
	</g>
	<g>
		<g>
			<path d="M-450.3,12h5.1c1,0,1.7-0.8,1.7-1.7V5.2c0-0.9-0.8-1.7-1.7-1.7h-5.1c-1,0-1.7,0.8-1.7,1.7v5.1
				C-452,11.2-451.2,12-450.3,12z"/>
		</g>
		<g>
			<path d="M-442.5,2.5V13H-453V2.5H-442.5 M-442,2h-11.5v11.5h11.5V2L-442,2z"/>
		</g>
	</g>
	<g>
		<g>
			<path d="M-456.7,16c0.4,0,0.7,0.3,0.7,0.7v5.1c0,0.4-0.3,0.7-0.7,0.7h-5.1c-0.4,0-0.7-0.3-0.7-0.7v-5.1c0-0.4,0.3-0.7,0.7-0.7
				L-456.7,16 M-456.7,15h-5.1c-1,0-1.7,0.8-1.7,1.7v5.1c0,1,0.8,1.7,1.7,1.7h5.1c1,0,1.7-0.8,1.7-1.7v-5.1
				C-455,15.8-455.8,15-456.7,15L-456.7,15z"/>
		</g>
		<g>
			<path d="M-454,14v10.5h-10.5V14H-454 M-453.5,13.5H-465V25h11.5V13.5L-453.5,13.5z"/>
		</g>
	</g>
	<g>
		<g>
			<path d="M-445.2,16c0.4,0,0.7,0.3,0.7,0.7v5.1c0,0.4-0.3,0.7-0.7,0.7h-5.1c-0.4,0-0.7-0.3-0.7-0.7v-5.1c0-0.4,0.3-0.7,0.7-0.7
				L-445.2,16 M-445.2,15h-5.1c-1,0-1.7,0.8-1.7,1.7v5.1c0,1,0.8,1.7,1.7,1.7h5.1c1,0,1.7-0.8,1.7-1.7v-5.1
				C-443.5,15.8-444.3,15-445.2,15L-445.2,15z"/>
		</g>
		<g>
			<path d="M-442.5,14v10.5H-453V14H-442.5 M-442,13.5h-11.5V25h11.5V13.5L-442,13.5z"/>
		</g>
	</g>
	<g>
		<g>
			<path d="M-484.8,46.5h5.1c1,0,1.7-0.8,1.7-1.7v-5.1c0-1-0.8-1.7-1.7-1.7h-5.1c-1,0-1.7,0.8-1.7,1.7v5.1
				C-486.5,45.8-485.8,46.5-484.8,46.5z"/>
		</g>
		<g>
			<path d="M-477,37v10.5h-10.5V37H-477 M-476.5,36.5H-488V48h11.5V36.5L-476.5,36.5z"/>
		</g>
	</g>
	<g>
		<g>
			<path d="M-473.3,46.5h5.1c1,0,1.7-0.8,1.7-1.7v-5.1c0-1-0.8-1.7-1.7-1.7h-5.1c-1,0-1.7,0.8-1.7,1.7v5.1
				C-475,45.8-474.2,46.5-473.3,46.5z"/>
		</g>
		<g>
			<path d="M-465.5,37v10.5H-476V37H-465.5 M-465,36.5h-11.5V48h11.5V36.5L-465,36.5z"/>
		</g>
	</g>
	<g>
		<g>
			<path d="M-461.8,46.5h5.1c1,0,1.7-0.8,1.7-1.7v-5.1c0-1-0.8-1.7-1.7-1.7h-5.1c-1,0-1.7,0.8-1.7,1.7v5.1
				C-463.5,45.8-462.7,46.5-461.8,46.5z"/>
		</g>
		<g>
			<path d="M-454,37v10.5h-10.5V37H-454 M-453.5,36.5H-465V48h11.5V36.5L-453.5,36.5z"/>
		</g>
	</g>
	<g>
		<g>
			<path d="M-450.3,46.5h5.1c1,0,1.7-0.8,1.7-1.7v-5.1c0-1-0.8-1.7-1.7-1.7h-5.1c-1,0-1.7,0.8-1.7,1.7v5.1
				C-452,45.8-451.2,46.5-450.3,46.5z"/>
		</g>
		<g>
			<path d="M-442.5,37v10.5H-453V37H-442.5 M-442,36.5h-11.5V48h11.5V36.5L-442,36.5z"/>
		</g>
	</g>
	<g>
		<rect x="-487.8" y="25.2" class="st0" width="45.5" height="11"/>
		<path d="M-442.5,25.5V36h-45V25.5H-442.5 M-442,25h-46v11.5h46V25L-442,25z"/>
	</g>
	<g>
		<path d="M-460.7,29.5V32c0,0.2-0.1,0.3-0.3,0.3h-2.2c-0.2,0-0.3,0.1-0.3,0.3v2.2c0,0.2-0.1,0.3-0.3,0.3h-2.4
			c-0.2,0-0.3-0.1-0.3-0.3v-2.2c0-0.2-0.1-0.3-0.3-0.3h-2.2c-0.2,0-0.3-0.1-0.3-0.3v-2.4c0-0.2,0.1-0.3,0.3-0.3h2.2
			c0.2,0,0.3-0.1,0.3-0.3v-2.2c0-0.2,0.1-0.3,0.3-0.3h2.4c0.2,0,0.3,0.1,0.3,0.3V29c0,0.2,0.1,0.3,0.3,0.3h2.2
			C-460.8,29.2-460.7,29.4-460.7,29.5z"/>
	</g>
</g>
<g>
	<g>
		<path d="M-372,2v46h-46V2H-372 M-371.5,1.5h-0.5h-46h-0.5V2v46v0.5h0.5h46h0.5V48V2V1.5L-371.5,1.5z"/>
	</g>
	<g>
		<g>
			<path d="M-375.2,38h-5.1c-1,0-1.7,0.8-1.7,1.7v5.1c0,1,0.8,1.7,1.7,1.7h5.1c1,0,1.7-0.8,1.7-1.7v-5.1
				C-373.5,38.8-374.3,38-375.2,38z"/>
		</g>
		<g>
			<path d="M-372.5,37v10.5H-383V37H-372.5 M-372,36.5h-11.5V48h11.5V36.5L-372,36.5z"/>
		</g>
	</g>
	<g>
		<g>
			<path d="M-386.7,38h-5.1c-1,0-1.7,0.8-1.7,1.7v5.1c0,1,0.8,1.7,1.7,1.7h5.1c1,0,1.7-0.8,1.7-1.7v-5.1
				C-385,38.8-385.8,38-386.7,38z"/>
		</g>
		<g>
			<path d="M-384,37v10.5h-10.5V37H-384 M-383.5,36.5H-395V48h11.5V36.5L-383.5,36.5z"/>
		</g>
	</g>
	<g>
		<g>
			<path d="M-375.2,27.5c0.4,0,0.7,0.3,0.7,0.7v5.1c0,0.4-0.3,0.7-0.7,0.7h-5.1c-0.4,0-0.7-0.3-0.7-0.7v-5.1c0-0.4,0.3-0.7,0.7-0.7
				L-375.2,27.5 M-375.2,26.5h-5.1c-1,0-1.7,0.8-1.7,1.7v5.1c0,1,0.8,1.7,1.7,1.7h5.1c1,0,1.7-0.8,1.7-1.7v-5.1
				C-373.5,27.3-374.3,26.5-375.2,26.5L-375.2,26.5z"/>
		</g>
		<g>
			<path d="M-372.5,25.5V36H-383V25.5H-372.5 M-372,25h-11.5v11.5h11.5V25L-372,25z"/>
		</g>
	</g>
	<g>
		<g>
			<path d="M-386.7,27.5c0.4,0,0.7,0.3,0.7,0.7v5.1c0,0.4-0.3,0.7-0.7,0.7h-5.1c-0.4,0-0.7-0.3-0.7-0.7v-5.1c0-0.4,0.3-0.7,0.7-0.7
				L-386.7,27.5 M-386.7,26.5h-5.1c-1,0-1.7,0.8-1.7,1.7v5.1c0,1,0.8,1.7,1.7,1.7h5.1c1,0,1.7-0.8,1.7-1.7v-5.1
				C-385,27.3-385.8,26.5-386.7,26.5L-386.7,26.5z"/>
		</g>
		<g>
			<path d="M-384,25.5V36h-10.5V25.5H-384 M-383.5,25H-395v11.5h11.5V25L-383.5,25z"/>
		</g>
	</g>
	<g>
		<g>
			<path d="M-398.2,38h-5.1c-1,0-1.7,0.8-1.7,1.7v5.1c0,1,0.8,1.7,1.7,1.7h5.1c1,0,1.7-0.8,1.7-1.7v-5.1
				C-396.5,38.8-397.3,38-398.2,38z"/>
		</g>
		<g>
			<path d="M-395.5,37v10.5H-406V37H-395.5 M-395,36.5h-11.5V48h11.5V36.5L-395,36.5z"/>
		</g>
	</g>
	<g>
		<g>
			<path d="M-409.8,38h-5.1c-1,0-1.7,0.8-1.7,1.7v5.1c0,1,0.8,1.7,1.7,1.7h5.1c1,0,1.7-0.8,1.7-1.7v-5.1
				C-408,38.8-408.8,38-409.8,38z"/>
		</g>
		<g>
			<path d="M-407,37v10.5h-10.5V37H-407 M-406.5,36.5H-418V48h11.5V36.5L-406.5,36.5z"/>
		</g>
	</g>
	<g>
		<g>
			<path d="M-398.2,27.5c0.4,0,0.7,0.3,0.7,0.7v5.1c0,0.4-0.3,0.7-0.7,0.7h-5.1c-0.4,0-0.7-0.3-0.7-0.7v-5.1c0-0.4,0.3-0.7,0.7-0.7
				L-398.2,27.5 M-398.2,26.5h-5.1c-1,0-1.7,0.8-1.7,1.7v5.1c0,1,0.8,1.7,1.7,1.7h5.1c1,0,1.7-0.8,1.7-1.7v-5.1
				C-396.5,27.3-397.3,26.5-398.2,26.5L-398.2,26.5z"/>
		</g>
		<g>
			<path d="M-395.5,25.5V36H-406V25.5H-395.5 M-395,25h-11.5v11.5h11.5V25L-395,25z"/>
		</g>
	</g>
	<g>
		<g>
			<path d="M-409.8,27.5c0.4,0,0.7,0.3,0.7,0.7v5.1c0,0.4-0.3,0.7-0.7,0.7h-5.1c-0.4,0-0.7-0.3-0.7-0.7v-5.1c0-0.4,0.3-0.7,0.7-0.7
				L-409.8,27.5 M-409.8,26.5h-5.1c-1,0-1.7,0.8-1.7,1.7v5.1c0,1,0.8,1.7,1.7,1.7h5.1c1,0,1.7-0.8,1.7-1.7v-5.1
				C-408,27.3-408.8,26.5-409.8,26.5L-409.8,26.5z"/>
		</g>
		<g>
			<path d="M-407,25.5V36h-10.5V25.5H-407 M-406.5,25H-418v11.5h11.5V25L-406.5,25z"/>
		</g>
	</g>
	<g>
		<g>
			<path d="M-375.2,3.5h-5.1c-1,0-1.7,0.8-1.7,1.7v5.1c0,0.9,0.8,1.7,1.7,1.7h5.1c1,0,1.7-0.8,1.7-1.7V5.2
				C-373.5,4.2-374.3,3.5-375.2,3.5z"/>
		</g>
		<g>
			<path d="M-372.5,2.5V13H-383V2.5H-372.5 M-372,2h-11.5v11.5h11.5V2L-372,2z"/>
		</g>
	</g>
	<g>
		<g>
			<path d="M-386.7,3.5h-5.1c-1,0-1.7,0.8-1.7,1.7v5.1c0,0.9,0.8,1.7,1.7,1.7h5.1c1,0,1.7-0.8,1.7-1.7V5.2
				C-385,4.2-385.8,3.5-386.7,3.5z"/>
		</g>
		<g>
			<path d="M-384,2.5V13h-10.5V2.5H-384 M-383.5,2H-395v11.5h11.5V2L-383.5,2z"/>
		</g>
	</g>
	<g>
		<g>
			<path d="M-398.2,3.5h-5.1c-1,0-1.7,0.8-1.7,1.7v5.1c0,0.9,0.8,1.7,1.7,1.7h5.1c1,0,1.7-0.8,1.7-1.7V5.2
				C-396.5,4.2-397.3,3.5-398.2,3.5z"/>
		</g>
		<g>
			<path d="M-395.5,2.5V13H-406V2.5H-395.5 M-395,2h-11.5v11.5h11.5V2L-395,2z"/>
		</g>
	</g>
	<g>
		<g>
			<path d="M-409.8,3.5h-5.1c-1,0-1.7,0.8-1.7,1.7v5.1c0,0.9,0.8,1.7,1.7,1.7h5.1c1,0,1.7-0.8,1.7-1.7V5.2
				C-408,4.2-408.8,3.5-409.8,3.5z"/>
		</g>
		<g>
			<path d="M-407,2.5V13h-10.5V2.5H-407 M-406.5,2H-418v11.5h11.5V2L-406.5,2z"/>
		</g>
	</g>
	<g>
		<rect x="-417.8" y="13.7" class="st0" width="45.5" height="11"/>
		<path d="M-372.5,14v10.5h-45V14H-372.5 M-372,13.5h-46V25h46V13.5L-372,13.5z"/>
	</g>
	<g>
		<path d="M-399.3,20.5V18c0-0.2,0.1-0.3,0.3-0.3h2.2c0.2,0,0.3-0.1,0.3-0.3v-2.2c0-0.2,0.1-0.3,0.3-0.3h2.4c0.2,0,0.3,0.1,0.3,0.3
			v2.2c0,0.2,0.1,0.3,0.3,0.3h2.2c0.2,0,0.3,0.1,0.3,0.3v2.4c0,0.2-0.1,0.3-0.3,0.3h-2.2c-0.2,0-0.3,0.1-0.3,0.3v2.2
			c0,0.2-0.1,0.3-0.3,0.3h-2.4c-0.2,0-0.3-0.1-0.3-0.3V21c0-0.2-0.1-0.3-0.3-0.3h-2.2C-399.2,20.8-399.3,20.6-399.3,20.5z"/>
	</g>
</g>
<g>
	<g>
		<path d="M-302,2v46h-46V2H-302 M-301.5,1.5h-0.5h-46h-0.5V2v46v0.5h0.5h46h0.5V48V2V1.5L-301.5,1.5z"/>
	</g>
	<g>
		<g>
			<path d="M-338,44.8v-5.1c0-1-0.8-1.7-1.7-1.7h-5.1c-1,0-1.7,0.8-1.7,1.7v5.1c0,1,0.8,1.7,1.7,1.7h5.1
				C-338.8,46.5-338,45.8-338,44.8z"/>
		</g>
		<g>
			<path d="M-337,37v10.5h-10.5V37H-337 M-336.5,36.5H-348V48h11.5V36.5L-336.5,36.5z"/>
		</g>
	</g>
	<g>
		<g>
			<path d="M-338,33.3v-5.1c0-1-0.8-1.7-1.7-1.7h-5.1c-1,0-1.7,0.8-1.7,1.7v5.1c0,1,0.8,1.7,1.7,1.7h5.1
				C-338.8,35-338,34.2-338,33.3z"/>
		</g>
		<g>
			<path d="M-337,25.5V36h-10.5V25.5H-337 M-336.5,25H-348v11.5h11.5V25L-336.5,25z"/>
		</g>
	</g>
	<g>
		<g>
			<path d="M-328.2,39c0.4,0,0.7,0.3,0.7,0.7v5.1c0,0.4-0.3,0.7-0.7,0.7h-5.1c-0.4,0-0.7-0.3-0.7-0.7v-5.1c0-0.4,0.3-0.7,0.7-0.7
				H-328.2 M-328.2,38h-5.1c-1,0-1.7,0.8-1.7,1.7v5.1c0,1,0.8,1.7,1.7,1.7h5.1c1,0,1.7-0.8,1.7-1.7v-5.1
				C-326.5,38.8-327.3,38-328.2,38L-328.2,38z"/>
		</g>
		<g>
			<path d="M-325.5,37v10.5H-336V37H-325.5 M-325,36.5h-11.5V48h11.5V36.5L-325,36.5z"/>
		</g>
	</g>
	<g>
		<g>
			<path d="M-328.2,27.5c0.4,0,0.7,0.3,0.7,0.7v5.1c0,0.4-0.3,0.7-0.7,0.7h-5.1c-0.4,0-0.7-0.3-0.7-0.7v-5.1c0-0.4,0.3-0.7,0.7-0.7
				L-328.2,27.5 M-328.2,26.5h-5.1c-1,0-1.7,0.8-1.7,1.7v5.1c0,1,0.8,1.7,1.7,1.7h5.1c1,0,1.7-0.8,1.7-1.7v-5.1
				C-326.5,27.3-327.3,26.5-328.2,26.5L-328.2,26.5z"/>
		</g>
		<g>
			<path d="M-325.5,25.5V36H-336V25.5H-325.5 M-325,25h-11.5v11.5h11.5V25L-325,25z"/>
		</g>
	</g>
	<g>
		<g>
			<path d="M-338,21.8v-5.1c0-0.9-0.8-1.7-1.7-1.7h-5.1c-1,0-1.7,0.8-1.7,1.7v5.1c0,1,0.8,1.7,1.7,1.7h5.1
				C-338.8,23.5-338,22.7-338,21.8z"/>
		</g>
		<g>
			<path d="M-337,14v10.5h-10.5V14H-337 M-336.5,13.5H-348V25h11.5V13.5L-336.5,13.5z"/>
		</g>
	</g>
	<g>
		<g>
			<path d="M-338,10.3V5.2c0-0.9-0.8-1.7-1.7-1.7h-5.1c-1,0-1.7,0.8-1.7,1.7v5.1c0,0.9,0.8,1.7,1.7,1.7h5.1
				C-338.8,12-338,11.2-338,10.3z"/>
		</g>
		<g>
			<path d="M-337,2.5V13h-10.5V2.5H-337 M-336.5,2H-348v11.5h11.5V2L-336.5,2z"/>
		</g>
	</g>
	<g>
		<g>
			<path d="M-328.2,16c0.4,0,0.7,0.3,0.7,0.7v5.1c0,0.4-0.3,0.7-0.7,0.7h-5.1c-0.4,0-0.7-0.3-0.7-0.7v-5.1c0-0.4,0.3-0.7,0.7-0.7
				L-328.2,16 M-328.2,15h-5.1c-1,0-1.7,0.8-1.7,1.7v5.1c0,1,0.8,1.7,1.7,1.7h5.1c1,0,1.7-0.8,1.7-1.7v-5.1
				C-326.5,15.8-327.3,15-328.2,15L-328.2,15z"/>
		</g>
		<g>
			<path d="M-325.5,14v10.5H-336V14H-325.5 M-325,13.5h-11.5V25h11.5V13.5L-325,13.5z"/>
		</g>
	</g>
	<g>
		<g>
			<path d="M-328.2,4.5c0.4,0,0.7,0.3,0.7,0.7v5.1c0,0.4-0.3,0.7-0.7,0.7h-5.1c-0.4,0-0.7-0.3-0.7-0.7V5.2c0-0.4,0.3-0.7,0.7-0.7
				L-328.2,4.5 M-328.2,3.5h-5.1c-1,0-1.7,0.8-1.7,1.7v5.1c0,0.9,0.8,1.7,1.7,1.7h5.1c1,0,1.7-0.8,1.7-1.7V5.2
				C-326.5,4.2-327.3,3.5-328.2,3.5L-328.2,3.5z"/>
		</g>
		<g>
			<path d="M-325.5,2.5V13H-336V2.5H-325.5 M-325,2h-11.5v11.5h11.5V2L-325,2z"/>
		</g>
	</g>
	<g>
		<g>
			<path d="M-303.5,44.8v-5.1c0-1-0.8-1.7-1.7-1.7h-5.1c-0.9,0-1.7,0.8-1.7,1.7v5.1c0,1,0.8,1.7,1.7,1.7h5.1
				C-304.3,46.5-303.5,45.8-303.5,44.8z"/>
		</g>
		<g>
			<path d="M-302.5,37v10.5H-313V37H-302.5 M-302,36.5h-11.5V48h11.5V36.5L-302,36.5z"/>
		</g>
	</g>
	<g>
		<g>
			<path d="M-303.5,33.3v-5.1c0-1-0.8-1.7-1.7-1.7h-5.1c-0.9,0-1.7,0.8-1.7,1.7v5.1c0,1,0.8,1.7,1.7,1.7h5.1
				C-304.3,35-303.5,34.2-303.5,33.3z"/>
		</g>
		<g>
			<path d="M-302.5,25.5V36H-313V25.5H-302.5 M-302,25h-11.5v11.5h11.5V25L-302,25z"/>
		</g>
	</g>
	<g>
		<g>
			<path d="M-303.5,21.8v-5.1c0-0.9-0.8-1.7-1.7-1.7h-5.1c-0.9,0-1.7,0.8-1.7,1.7v5.1c0,1,0.8,1.7,1.7,1.7h5.1
				C-304.3,23.5-303.5,22.7-303.5,21.8z"/>
		</g>
		<g>
			<path d="M-302.5,14v10.5H-313V14H-302.5 M-302,13.5h-11.5V25h11.5V13.5L-302,13.5z"/>
		</g>
	</g>
	<g>
		<g>
			<path d="M-303.5,10.3V5.2c0-0.9-0.8-1.7-1.7-1.7h-5.1c-0.9,0-1.7,0.8-1.7,1.7v5.1c0,0.9,0.8,1.7,1.7,1.7h5.1
				C-304.3,12-303.5,11.2-303.5,10.3z"/>
		</g>
		<g>
			<path d="M-302.5,2.5V13H-313V2.5H-302.5 M-302,2h-11.5v11.5h11.5V2L-302,2z"/>
		</g>
	</g>
	<g>
		<rect x="-324.8" y="2.2" class="st0" width="11" height="45.5"/>
		<path d="M-314,2.5v45h-10.5v-45H-314 M-313.5,2H-325v46h11.5V2L-313.5,2z"/>
	</g>
	<g>
		<path d="M-320.5,20.7h2.4c0.2,0,0.3,0.1,0.3,0.3v2.2c0,0.2,0.1,0.3,0.3,0.3h2.2c0.2,0,0.3,0.1,0.3,0.3v2.4c0,0.2-0.1,0.3-0.3,0.3
			h-2.2c-0.2,0-0.3,0.1-0.3,0.3V29c0,0.2-0.1,0.3-0.3,0.3h-2.4c-0.2,0-0.3-0.1-0.3-0.3v-2.2c0-0.2-0.1-0.3-0.3-0.3h-2.2
			c-0.2,0-0.3-0.1-0.3-0.3v-2.4c0-0.2,0.1-0.3,0.3-0.3h2.2c0.2,0,0.3-0.1,0.3-0.3V21C-320.8,20.8-320.6,20.7-320.5,20.7z"/>
	</g>
</g>
<g>
	<g>
		<path d="M-232,2v46H-278V2H-232 M-231.5,1.5h-0.5H-278h-0.5V2v46v0.5h0.5h46.1h0.5V48V2V1.5L-231.5,1.5z"/>
	</g>
	<g>
		<g>
			<path d="M-242,5.2v5.1c0,0.9,0.8,1.7,1.7,1.7h5.1c0.9,0,1.7-0.8,1.7-1.7V5.2c0-0.9-0.8-1.7-1.7-1.7h-5.1
				C-241.2,3.5-242,4.2-242,5.2z"/>
		</g>
		<g>
			<path d="M-232.5,2.5V13H-243V2.5H-232.5 M-232,2h-11.5v11.5h11.5V2L-232,2z"/>
		</g>
	</g>
	<g>
		<g>
			<path d="M-242,16.7v5.1c0,1,0.8,1.7,1.7,1.7h5.1c0.9,0,1.7-0.8,1.7-1.7v-5.1c0-0.9-0.8-1.7-1.7-1.7h-5.1
				C-241.2,15-242,15.8-242,16.7z"/>
		</g>
		<g>
			<path d="M-232.5,14v10.5H-243V14H-232.5 M-232,13.5h-11.5V25h11.5V13.5L-232,13.5z"/>
		</g>
	</g>
	<g>
		<g>
			<path d="M-246.7,4.5c0.4,0,0.7,0.3,0.7,0.7v5.1c0,0.4-0.3,0.7-0.7,0.7h-5.1c-0.4,0-0.7-0.3-0.7-0.7V5.2c0-0.4,0.3-0.7,0.7-0.7
				L-246.7,4.5 M-246.7,3.5h-5.1c-0.9,0-1.7,0.8-1.7,1.7v5.1c0,0.9,0.8,1.7,1.7,1.7h5.1c0.9,0,1.7-0.8,1.7-1.7V5.2
				C-245,4.2-245.8,3.5-246.7,3.5L-246.7,3.5z"/>
		</g>
		<g>
			<path d="M-244,2.5V13h-10.5V2.5H-244 M-243.5,2H-255v11.5h11.5V2L-243.5,2z"/>
		</g>
	</g>
	<g>
		<g>
			<path d="M-246.7,16c0.4,0,0.7,0.3,0.7,0.7v5.1c0,0.4-0.3,0.7-0.7,0.7h-5.1c-0.4,0-0.7-0.3-0.7-0.7v-5.1c0-0.4,0.3-0.7,0.7-0.7
				L-246.7,16 M-246.7,15h-5.1c-0.9,0-1.7,0.8-1.7,1.7v5.1c0,1,0.8,1.7,1.7,1.7h5.1c0.9,0,1.7-0.8,1.7-1.7v-5.1
				C-245,15.8-245.8,15-246.7,15L-246.7,15z"/>
		</g>
		<g>
			<path d="M-244,14v10.5h-10.5V14H-244 M-243.5,13.5H-255V25h11.5V13.5L-243.5,13.5z"/>
		</g>
	</g>
	<g>
		<g>
			<path d="M-242,28.2v5.1c0,1,0.8,1.7,1.7,1.7h5.1c0.9,0,1.7-0.8,1.7-1.7v-5.1c0-1-0.8-1.7-1.7-1.7h-5.1
				C-241.2,26.5-242,27.3-242,28.2z"/>
		</g>
		<g>
			<path d="M-232.5,25.5V36H-243V25.5H-232.5 M-232,25h-11.5v11.5h11.5V25L-232,25z"/>
		</g>
	</g>
	<g>
		<g>
			<path d="M-242,39.7v5.1c0,1,0.8,1.7,1.7,1.7h5.1c0.9,0,1.7-0.8,1.7-1.7v-5.1c0-1-0.8-1.7-1.7-1.7h-5.1
				C-241.2,38-242,38.8-242,39.7z"/>
		</g>
		<g>
			<path d="M-232.5,37v10.5H-243V37H-232.5 M-232,36.5h-11.5V48h11.5V36.5L-232,36.5z"/>
		</g>
	</g>
	<g>
		<g>
			<path d="M-246.7,27.5c0.4,0,0.7,0.3,0.7,0.7v5.1c0,0.4-0.3,0.7-0.7,0.7h-5.1c-0.4,0-0.7-0.3-0.7-0.7v-5.1c0-0.4,0.3-0.7,0.7-0.7
				L-246.7,27.5 M-246.7,26.5h-5.1c-0.9,0-1.7,0.8-1.7,1.7v5.1c0,1,0.8,1.7,1.7,1.7h5.1c0.9,0,1.7-0.8,1.7-1.7v-5.1
				C-245,27.3-245.8,26.5-246.7,26.5L-246.7,26.5z"/>
		</g>
		<g>
			<path d="M-244,25.5V36h-10.5V25.5H-244 M-243.5,25H-255v11.5h11.5V25L-243.5,25z"/>
		</g>
	</g>
	<g>
		<g>
			<path d="M-246.7,39c0.4,0,0.7,0.3,0.7,0.7v5.1c0,0.4-0.3,0.7-0.7,0.7h-5.1c-0.4,0-0.7-0.3-0.7-0.7v-5.1c0-0.4,0.3-0.7,0.7-0.7
				H-246.7 M-246.7,38h-5.1c-0.9,0-1.7,0.8-1.7,1.7v5.1c0,1,0.8,1.7,1.7,1.7h5.1c0.9,0,1.7-0.8,1.7-1.7v-5.1
				C-245,38.8-245.8,38-246.7,38L-246.7,38z"/>
		</g>
		<g>
			<path d="M-244,37v10.5h-10.5V37H-244 M-243.5,36.5H-255V48h11.5V36.5L-243.5,36.5z"/>
		</g>
	</g>
	<g>
		<g>
			<path d="M-276.5,5.2v5.1c0,0.9,0.8,1.7,1.7,1.7h5.1c1,0,1.7-0.8,1.7-1.7V5.2c0-0.9-0.8-1.7-1.7-1.7h-5.1
				C-275.8,3.5-276.5,4.2-276.5,5.2z"/>
		</g>
		<g>
			<path d="M-267,2.5V13h-10.5V2.5H-267 M-266.5,2H-278v11.5h11.5V2L-266.5,2z"/>
		</g>
	</g>
	<g>
		<g>
			<path d="M-276.5,16.7v5.1c0,1,0.8,1.7,1.7,1.7h5.1c1,0,1.7-0.8,1.7-1.7v-5.1c0-0.9-0.8-1.7-1.7-1.7h-5.1
				C-275.8,15-276.5,15.8-276.5,16.7z"/>
		</g>
		<g>
			<path d="M-267,14v10.5h-10.5V14H-267 M-266.5,13.5H-278V25h11.5V13.5L-266.5,13.5z"/>
		</g>
	</g>
	<g>
		<g>
			<path d="M-276.5,28.2v5.1c0,1,0.8,1.7,1.7,1.7h5.1c1,0,1.7-0.8,1.7-1.7v-5.1c0-1-0.8-1.7-1.7-1.7h-5.1
				C-275.8,26.5-276.5,27.3-276.5,28.2z"/>
		</g>
		<g>
			<path d="M-267,25.5V36h-10.5V25.5H-267 M-266.5,25H-278v11.5h11.5V25L-266.5,25z"/>
		</g>
	</g>
	<g>
		<g>
			<path d="M-276.5,39.7v5.1c0,1,0.8,1.7,1.7,1.7h5.1c1,0,1.7-0.8,1.7-1.7v-5.1c0-1-0.8-1.7-1.7-1.7h-5.1
				C-275.8,38-276.5,38.8-276.5,39.7z"/>
		</g>
		<g>
			<path d="M-267,37v10.5h-10.5V37H-267 M-266.5,36.5H-278V48h11.5V36.5L-266.5,36.5z"/>
		</g>
	</g>
	<g>
		<rect x="-266.3" y="2.2" class="st0" width="11" height="45.5"/>
		<path d="M-255.5,2.5v45H-266v-45H-255.5 M-255,2h-11.5v46h11.5V2L-255,2z"/>
	</g>
	<g>
		<path d="M-259.5,29.3h-2.4c-0.2,0-0.3-0.1-0.3-0.3v-2.2c0-0.2-0.1-0.3-0.3-0.3h-2.2c-0.2,0-0.3-0.1-0.3-0.3v-2.4
			c0-0.2,0.1-0.3,0.3-0.3h2.2c0.2,0,0.3-0.1,0.3-0.3V21c0-0.2,0.1-0.3,0.3-0.3h2.4c0.2,0,0.3,0.1,0.3,0.3v2.2c0,0.2,0.1,0.3,0.3,0.3
			h2.2c0.2,0,0.3,0.1,0.3,0.3v2.4c0,0.2-0.1,0.3-0.3,0.3h-2.2c-0.2,0-0.3,0.1-0.3,0.3V29C-259.3,29.2-259.4,29.3-259.5,29.3z"/>
	</g>
</g>
<g>
	<g>
		<path d="M-167.7,2v46h-34.5V2H-167.7 M-167.2,1.5h-0.5h-34.5h-0.5V2v46v0.5h0.5h34.5h0.5V48V2V1.5L-167.2,1.5z"/>
	</g>
	<g>
		<g>
			<path d="M-192.3,44.8v-5.1c0-1-0.8-1.7-1.7-1.7h-5.1c-0.9,0-1.7,0.8-1.7,1.7v5.1c0,1,0.8,1.7,1.7,1.7h5.1
				C-193,46.5-192.3,45.8-192.3,44.8z"/>
		</g>
		<g>
			<path d="M-191.3,37v10.5h-10.5V37H-191.3 M-190.8,36.5h-11.5V48h11.5V36.5L-190.8,36.5z"/>
		</g>
	</g>
	<g>
		<g>
			<path d="M-192.3,33.3v-5.1c0-1-0.8-1.7-1.7-1.7h-5.1c-0.9,0-1.7,0.8-1.7,1.7v5.1c0,1,0.8,1.7,1.7,1.7h5.1
				C-193,35-192.3,34.2-192.3,33.3z"/>
		</g>
		<g>
			<path d="M-191.3,25.5V36h-10.5V25.5H-191.3 M-190.8,25h-11.5v11.5h11.5V25L-190.8,25z"/>
		</g>
	</g>
	<g>
		<g>
			<path d="M-182.5,39c0.4,0,0.7,0.3,0.7,0.7v5.1c0,0.4-0.3,0.7-0.7,0.7h-5.1c-0.4,0-0.7-0.3-0.7-0.7v-5.1c0-0.4,0.3-0.7,0.7-0.7
				H-182.5 M-182.5,38h-5.1c-0.9,0-1.7,0.8-1.7,1.7v5.1c0,1,0.8,1.7,1.7,1.7h5.1c0.9,0,1.7-0.8,1.7-1.7v-5.1
				C-180.8,38.8-181.5,38-182.5,38L-182.5,38z"/>
		</g>
		<g>
			<path d="M-179.8,37v10.5h-10.5V37H-179.8 M-179.3,36.5h-11.5V48h11.5V36.5L-179.3,36.5z"/>
		</g>
	</g>
	<g>
		<g>
			<path d="M-182.5,27.5c0.4,0,0.7,0.3,0.7,0.7v5.1c0,0.4-0.3,0.7-0.7,0.7h-5.1c-0.4,0-0.7-0.3-0.7-0.7v-5.1c0-0.4,0.3-0.7,0.7-0.7
				L-182.5,27.5 M-182.5,26.5h-5.1c-0.9,0-1.7,0.8-1.7,1.7v5.1c0,1,0.8,1.7,1.7,1.7h5.1c0.9,0,1.7-0.8,1.7-1.7v-5.1
				C-180.8,27.3-181.5,26.5-182.5,26.5L-182.5,26.5z"/>
		</g>
		<g>
			<path d="M-179.8,25.5V36h-10.5V25.5H-179.8 M-179.3,25h-11.5v11.5h11.5V25L-179.3,25z"/>
		</g>
	</g>
	<g>
		<g>
			<path d="M-192.3,21.8v-5.1c0-0.9-0.8-1.7-1.7-1.7h-5.1c-0.9,0-1.7,0.8-1.7,1.7v5.1c0,1,0.8,1.7,1.7,1.7h5.1
				C-193,23.5-192.3,22.7-192.3,21.8z"/>
		</g>
		<g>
			<path d="M-191.3,14v10.5h-10.5V14H-191.3 M-190.8,13.5h-11.5V25h11.5V13.5L-190.8,13.5z"/>
		</g>
	</g>
	<g>
		<g>
			<path d="M-192.3,10.3V5.2c0-0.9-0.8-1.7-1.7-1.7h-5.1c-0.9,0-1.7,0.8-1.7,1.7v5.1c0,0.9,0.8,1.7,1.7,1.7h5.1
				C-193,12-192.3,11.2-192.3,10.3z"/>
		</g>
		<g>
			<path d="M-191.3,2.5V13h-10.5V2.5H-191.3 M-190.8,2h-11.5v11.5h11.5V2L-190.8,2z"/>
		</g>
	</g>
	<g>
		<g>
			<path d="M-182.5,16c0.4,0,0.7,0.3,0.7,0.7v5.1c0,0.4-0.3,0.7-0.7,0.7h-5.1c-0.4,0-0.7-0.3-0.7-0.7v-5.1c0-0.4,0.3-0.7,0.7-0.7
				L-182.5,16 M-182.5,15h-5.1c-0.9,0-1.7,0.8-1.7,1.7v5.1c0,1,0.8,1.7,1.7,1.7h5.1c0.9,0,1.7-0.8,1.7-1.7v-5.1
				C-180.8,15.8-181.5,15-182.5,15L-182.5,15z"/>
		</g>
		<g>
			<path d="M-179.8,14v10.5h-10.5V14H-179.8 M-179.3,13.5h-11.5V25h11.5V13.5L-179.3,13.5z"/>
		</g>
	</g>
	<g>
		<g>
			<path d="M-182.5,4.5c0.4,0,0.7,0.3,0.7,0.7v5.1c0,0.4-0.3,0.7-0.7,0.7h-5.1c-0.4,0-0.7-0.3-0.7-0.7V5.2c0-0.4,0.3-0.7,0.7-0.7
				L-182.5,4.5 M-182.5,3.5h-5.1c-0.9,0-1.7,0.8-1.7,1.7v5.1c0,0.9,0.8,1.7,1.7,1.7h5.1c0.9,0,1.7-0.8,1.7-1.7V5.2
				C-180.8,4.2-181.5,3.5-182.5,3.5L-182.5,3.5z"/>
		</g>
		<g>
			<path d="M-179.8,2.5V13h-10.5V2.5H-179.8 M-179.3,2h-11.5v11.5h11.5V2L-179.3,2z"/>
		</g>
	</g>
	<g>
		<g>
			<path d="M-169.2,44.8v-5.1c0-1-0.8-1.7-1.7-1.7h-5.1c-0.9,0-1.7,0.8-1.7,1.7v5.1c0,1,0.8,1.7,1.7,1.7h5.1
				C-170,46.5-169.2,45.8-169.2,44.8z"/>
		</g>
		<g>
			<path d="M-168.2,37v10.5h-10.5V37H-168.2 M-167.7,36.5h-11.5V48h11.5V36.5L-167.7,36.5z"/>
		</g>
	</g>
	<g>
		<g>
			<path d="M-169.2,33.3v-5.1c0-1-0.8-1.7-1.7-1.7h-5.1c-0.9,0-1.7,0.8-1.7,1.7v5.1c0,1,0.8,1.7,1.7,1.7h5.1
				C-170,35-169.2,34.2-169.2,33.3z"/>
		</g>
		<g>
			<path d="M-168.2,25.5V36h-10.5V25.5H-168.2 M-167.7,25h-11.5v11.5h11.5V25L-167.7,25z"/>
		</g>
	</g>
	<g>
		<g>
			<path d="M-169.2,21.8v-5.1c0-0.9-0.8-1.7-1.7-1.7h-5.1c-0.9,0-1.7,0.8-1.7,1.7v5.1c0,1,0.8,1.7,1.7,1.7h5.1
				C-170,23.5-169.2,22.7-169.2,21.8z"/>
		</g>
		<g>
			<path d="M-168.2,14v10.5h-10.5V14H-168.2 M-167.7,13.5h-11.5V25h11.5V13.5L-167.7,13.5z"/>
		</g>
	</g>
	<g>
		<g>
			<path d="M-169.2,10.3V5.2c0-0.9-0.8-1.7-1.7-1.7h-5.1c-0.9,0-1.7,0.8-1.7,1.7v5.1c0,0.9,0.8,1.7,1.7,1.7h5.1
				C-170,12-169.2,11.2-169.2,10.3z"/>
		</g>
		<g>
			<path d="M-168.2,2.5V13h-10.5V2.5H-168.2 M-167.7,2h-11.5v11.5h11.5V2L-167.7,2z"/>
		</g>
	</g>
	<path d="M-182.8,9.3l-0.6,0.6l-1.3-1.3c-0.2-0.2-0.4-0.2-0.6,0l-1.3,1.3l-0.6-0.6l1.3-1.3c0.2-0.2,0.2-0.4,0-0.6l-1.3-1.3l0.6-0.6
		l1.3,1.3c0.2,0.2,0.4,0.2,0.6,0l1.3-1.3l0.6,0.6l-1.3,1.3c-0.2,0.2-0.2,0.4,0,0.6L-182.8,9.3z"/>
	<path d="M-182.8,20.9l-0.6,0.6l-1.3-1.3c-0.2-0.2-0.4-0.2-0.6,0l-1.3,1.3l-0.6-0.6l1.3-1.3c0.2-0.2,0.2-0.5,0-0.6l-1.3-1.3l0.6-0.6
		l1.3,1.3c0.2,0.2,0.4,0.2,0.6,0l1.3-1.3l0.6,0.6l-1.3,1.3c-0.2,0.2-0.2,0.5,0,0.6L-182.8,20.9z"/>
	<path d="M-182.8,32.4l-0.6,0.6l-1.3-1.3c-0.2-0.2-0.4-0.2-0.6,0l-1.3,1.3l-0.6-0.6l1.3-1.3c0.2-0.2,0.2-0.5,0-0.6l-1.3-1.3l0.6-0.6
		l1.3,1.3c0.2,0.2,0.4,0.2,0.6,0l1.3-1.3l0.6,0.6l-1.3,1.3c-0.2,0.2-0.2,0.5,0,0.6L-182.8,32.4z"/>
	<path d="M-182.8,43.9l-0.6,0.6l-1.3-1.3c-0.2-0.2-0.4-0.2-0.6,0l-1.3,1.3l-0.6-0.6l1.3-1.3c0.2-0.2,0.2-0.5,0-0.6l-1.3-1.3l0.6-0.6
		l1.3,1.3c0.2,0.2,0.4,0.2,0.6,0l1.3-1.3l0.6,0.6l-1.3,1.3c-0.2,0.2-0.2,0.5,0,0.6L-182.8,43.9z"/>
</g>
<g>
	<g>
		<path d="M-92,7.7v34.5H-138V7.7H-92 M-91.5,7.2H-92H-138h-0.5v0.5v34.5v0.5h0.5H-92h0.5v-0.5V7.7V7.2L-91.5,7.2z"/>
	</g>
	<g>
		<g>
			<path d="M-134.8,17.7h5.1c0.9,0,1.7-0.8,1.7-1.7V11c0-0.9-0.8-1.7-1.7-1.7h-5.1c-0.9,0-1.7,0.8-1.7,1.7V16
				C-136.5,17-135.8,17.7-134.8,17.7z"/>
		</g>
		<g>
			<path d="M-127,8.2v10.5h-10.5V8.2H-127 M-126.5,7.7H-138v11.5h11.5V7.7L-126.5,7.7z"/>
		</g>
	</g>
	<g>
		<g>
			<path d="M-123.3,17.7h5.1c1,0,1.7-0.8,1.7-1.7V11c0-0.9-0.8-1.7-1.7-1.7h-5.1c-0.9,0-1.7,0.8-1.7,1.7V16
				C-125,17-124.3,17.7-123.3,17.7z"/>
		</g>
		<g>
			<path d="M-115.5,8.2v10.5H-126V8.2H-115.5 M-115,7.7h-11.5v11.5h11.5V7.7L-115,7.7z"/>
		</g>
	</g>
	<g>
		<g>
			<path d="M-129.8,21.8c0.4,0,0.7,0.3,0.7,0.7v5.1c0,0.4-0.3,0.7-0.7,0.7h-5.1c-0.4,0-0.7-0.3-0.7-0.7v-5.1c0-0.4,0.3-0.7,0.7-0.7
				H-129.8 M-129.8,20.8h-5.1c-0.9,0-1.7,0.8-1.7,1.7v5.1c0,1,0.8,1.7,1.7,1.7h5.1c0.9,0,1.7-0.8,1.7-1.7v-5.1
				C-128,21.5-128.8,20.8-129.8,20.8L-129.8,20.8z"/>
		</g>
		<g>
			<path d="M-127,19.7v10.5h-10.5V19.7H-127 M-126.5,19.2H-138v11.5h11.5V19.2L-126.5,19.2z"/>
		</g>
	</g>
	<g>
		<g>
			<path d="M-118.2,21.8c0.4,0,0.7,0.3,0.7,0.7v5.1c0,0.4-0.3,0.7-0.7,0.7h-5.1c-0.4,0-0.7-0.3-0.7-0.7v-5.1c0-0.4,0.3-0.7,0.7-0.7
				H-118.2 M-118.2,20.8h-5.1c-0.9,0-1.7,0.8-1.7,1.7v5.1c0,1,0.8,1.7,1.7,1.7h5.1c1,0,1.7-0.8,1.7-1.7v-5.1
				C-116.5,21.5-117.3,20.8-118.2,20.8L-118.2,20.8z"/>
		</g>
		<g>
			<path d="M-115.5,19.7v10.5H-126V19.7H-115.5 M-115,19.2h-11.5v11.5h11.5V19.2L-115,19.2z"/>
		</g>
	</g>
	<g>
		<g>
			<path d="M-111.8,17.7h5.1c1,0,1.7-0.8,1.7-1.7V11c0-0.9-0.8-1.7-1.7-1.7h-5.1c-0.9,0-1.7,0.8-1.7,1.7V16
				C-113.5,17-112.7,17.7-111.8,17.7z"/>
		</g>
		<g>
			<path d="M-104,8.2v10.5h-10.5V8.2H-104 M-103.5,7.7H-115v11.5h11.5V7.7L-103.5,7.7z"/>
		</g>
	</g>
	<g>
		<g>
			<path d="M-100.3,17.7h5.1c0.9,0,1.7-0.8,1.7-1.7V11c0-0.9-0.8-1.7-1.7-1.7h-5.1c-1,0-1.7,0.8-1.7,1.7V16
				C-102,17-101.2,17.7-100.3,17.7z"/>
		</g>
		<g>
			<path d="M-92.5,8.2v10.5H-103V8.2H-92.5 M-92,7.7h-11.5v11.5H-92V7.7L-92,7.7z"/>
		</g>
	</g>
	<g>
		<g>
			<path d="M-106.7,21.8c0.4,0,0.7,0.3,0.7,0.7v5.1c0,0.4-0.3,0.7-0.7,0.7h-5.1c-0.4,0-0.7-0.3-0.7-0.7v-5.1c0-0.4,0.3-0.7,0.7-0.7
				H-106.7 M-106.7,20.8h-5.1c-0.9,0-1.7,0.8-1.7,1.7v5.1c0,1,0.8,1.7,1.7,1.7h5.1c1,0,1.7-0.8,1.7-1.7v-5.1
				C-105,21.5-105.8,20.8-106.7,20.8L-106.7,20.8z"/>
		</g>
		<g>
			<path d="M-104,19.7v10.5h-10.5V19.7H-104 M-103.5,19.2H-115v11.5h11.5V19.2L-103.5,19.2z"/>
		</g>
	</g>
	<g>
		<g>
			<path d="M-95.2,21.8c0.4,0,0.7,0.3,0.7,0.7v5.1c0,0.4-0.3,0.7-0.7,0.7h-5.1c-0.4,0-0.7-0.3-0.7-0.7v-5.1c0-0.4,0.3-0.7,0.7-0.7
				H-95.2 M-95.2,20.8h-5.1c-1,0-1.7,0.8-1.7,1.7v5.1c0,1,0.8,1.7,1.7,1.7h5.1c0.9,0,1.7-0.8,1.7-1.7v-5.1
				C-93.5,21.5-94.3,20.8-95.2,20.8L-95.2,20.8z"/>
		</g>
		<g>
			<path d="M-92.5,19.7v10.5H-103V19.7H-92.5 M-92,19.2h-11.5v11.5H-92V19.2L-92,19.2z"/>
		</g>
	</g>
	<g>
		<g>
			<path d="M-134.8,40.8h5.1c0.9,0,1.7-0.8,1.7-1.7V34c0-1-0.8-1.7-1.7-1.7h-5.1c-0.9,0-1.7,0.8-1.7,1.7V39
				C-136.5,40-135.8,40.8-134.8,40.8z"/>
		</g>
		<g>
			<path d="M-127,31.3v10.5h-10.5V31.3H-127 M-126.5,30.8H-138v11.5h11.5V30.8L-126.5,30.8z"/>
		</g>
	</g>
	<g>
		<g>
			<path d="M-123.3,40.8h5.1c1,0,1.7-0.8,1.7-1.7V34c0-1-0.8-1.7-1.7-1.7h-5.1c-0.9,0-1.7,0.8-1.7,1.7V39
				C-125,40-124.3,40.8-123.3,40.8z"/>
		</g>
		<g>
			<path d="M-115.5,31.3v10.5H-126V31.3H-115.5 M-115,30.8h-11.5v11.5h11.5V30.8L-115,30.8z"/>
		</g>
	</g>
	<g>
		<g>
			<path d="M-111.8,40.8h5.1c1,0,1.7-0.8,1.7-1.7V34c0-1-0.8-1.7-1.7-1.7h-5.1c-0.9,0-1.7,0.8-1.7,1.7V39
				C-113.5,40-112.7,40.8-111.8,40.8z"/>
		</g>
		<g>
			<path d="M-104,31.3v10.5h-10.5V31.3H-104 M-103.5,30.8H-115v11.5h11.5V30.8L-103.5,30.8z"/>
		</g>
	</g>
	<g>
		<g>
			<path d="M-100.3,40.8h5.1c0.9,0,1.7-0.8,1.7-1.7V34c0-1-0.8-1.7-1.7-1.7h-5.1c-1,0-1.7,0.8-1.7,1.7V39
				C-102,40-101.2,40.8-100.3,40.8z"/>
		</g>
		<g>
			<path d="M-92.5,31.3v10.5H-103V31.3H-92.5 M-92,30.8h-11.5v11.5H-92V30.8L-92,30.8z"/>
		</g>
	</g>
	<path d="M-99.4,27.2l-0.6-0.6l1.3-1.3c0.2-0.2,0.2-0.5,0-0.6l-1.3-1.3l0.6-0.6l1.3,1.3c0.2,0.2,0.4,0.2,0.6,0l1.3-1.3l0.6,0.6
		l-1.3,1.3c-0.2,0.2-0.2,0.5,0,0.6l1.3,1.3l-0.6,0.6l-1.3-1.3c-0.2-0.2-0.4-0.2-0.6,0L-99.4,27.2z"/>
	<path d="M-110.9,27.2l-0.6-0.6l1.3-1.3c0.2-0.2,0.2-0.5,0-0.6l-1.3-1.3l0.6-0.6l1.3,1.3c0.2,0.2,0.5,0.2,0.6,0l1.3-1.3l0.6,0.6
		l-1.3,1.3c-0.2,0.2-0.2,0.5,0,0.6l1.3,1.3l-0.6,0.6l-1.3-1.3c-0.2-0.2-0.4-0.2-0.6,0L-110.9,27.2z"/>
	<path d="M-122.4,27.2l-0.6-0.6l1.3-1.3c0.2-0.2,0.2-0.5,0-0.6l-1.3-1.3l0.6-0.6l1.3,1.3c0.2,0.2,0.5,0.2,0.6,0l1.3-1.3l0.6,0.6
		l-1.3,1.3c-0.2,0.2-0.2,0.5,0,0.6l1.3,1.3l-0.6,0.6l-1.3-1.3c-0.2-0.2-0.5-0.2-0.6,0L-122.4,27.2z"/>
	<path d="M-133.9,27.2l-0.6-0.6l1.3-1.3c0.2-0.2,0.2-0.5,0-0.6l-1.3-1.3l0.6-0.6l1.3,1.3c0.2,0.2,0.4,0.2,0.6,0l1.3-1.3l0.6,0.6
		l-1.3,1.3c-0.2,0.2-0.2,0.5,0,0.6l1.3,1.3l-0.6,0.6L-132,26c-0.2-0.2-0.4-0.2-0.6,0L-133.9,27.2z"/>
</g>
<g>
	<g>
		<path d="M48,2v46H2V2H48 M48.5,1.5H48H2H1.5V2v46v0.5H2H48h0.5V48V2L48.5,1.5L48.5,1.5z"/>
	</g>
	<g>
		<g>
			<path d="M5.2,23.5h5.1c0.9,0,1.7-0.8,1.7-1.7v-5.1c0-0.9-0.8-1.7-1.7-1.7H5.2c-0.9,0-1.7,0.8-1.7,1.7v5.1
				C3.5,22.7,4.2,23.5,5.2,23.5z"/>
		</g>
		<g>
			<path d="M13,14v10.5H2.5V14H13 M13.5,13.5H2V25h11.5L13.5,13.5L13.5,13.5z"/>
		</g>
	</g>
	<g>
		<g>
			<path d="M16.7,23.5h5.1c0.9,0,1.7-0.8,1.7-1.7v-5.1c0-0.9-0.8-1.7-1.7-1.7h-5.1c-0.9,0-1.7,0.8-1.7,1.7v5.1
				C15,22.7,15.7,23.5,16.7,23.5z"/>
		</g>
		<g>
			<path d="M24.5,14v10.5H14V14H24.5 M25,13.5H13.5V25H25V13.5L25,13.5z"/>
		</g>
	</g>
	<g>
		<g>
			<path d="M22,5v5.5h-5.5V5H22 M22.3,3h-6.1c-0.9,0-1.7,0.8-1.7,1.7v6.1c0,0.9,0.8,1.7,1.7,1.7h6.1c0.9,0,1.7-0.8,1.7-1.7V4.7
				C24,3.7,23.2,3,22.3,3L22.3,3z"/>
		</g>
		<g>
			<path d="M24.5,2.5V13H14V2.5H24.5 M25,2H13.5v11.5H25V2L25,2z"/>
		</g>
	</g>
	<g>
		<g>
			<path d="M28.2,23.5h5.1c0.9,0,1.7-0.8,1.7-1.7v-5.1c0-0.9-0.8-1.7-1.7-1.7h-5.1c-0.9,0-1.7,0.8-1.7,1.7v5.1
				C26.5,22.7,27.3,23.5,28.2,23.5z"/>
		</g>
		<g>
			<path d="M36,14v10.5H25.5V14H36 M36.5,13.5H25V25h11.5V13.5L36.5,13.5z"/>
		</g>
	</g>
	<g>
		<g>
			<path d="M39.7,23.5h5.1c0.9,0,1.7-0.8,1.7-1.7v-5.1c0-0.9-0.8-1.7-1.7-1.7h-5.1c-0.9,0-1.7,0.8-1.7,1.7v5.1
				C38,22.7,38.8,23.5,39.7,23.5z"/>
		</g>
		<g>
			<path d="M47.5,14v10.5H37V14H47.5 M48,13.5H36.5V25H48V13.5L48,13.5z"/>
		</g>
	</g>
	<g>
		<g>
			<path d="M5.2,46.5h5.1c0.9,0,1.7-0.8,1.7-1.7v-5.1c0-1-0.8-1.7-1.7-1.7H5.2c-0.9,0-1.7,0.8-1.7,1.7v5.1
				C3.5,45.8,4.2,46.5,5.2,46.5z"/>
		</g>
		<g>
			<path d="M13,37v10.5H2.5V37H13 M13.5,36.5H2V48h11.5L13.5,36.5L13.5,36.5z"/>
		</g>
	</g>
	<g>
		<g>
			<path d="M16.7,46.5h5.1c0.9,0,1.7-0.8,1.7-1.7v-5.1c0-1-0.8-1.7-1.7-1.7h-5.1c-0.9,0-1.7,0.8-1.7,1.7v5.1
				C15,45.8,15.7,46.5,16.7,46.5z"/>
		</g>
		<g>
			<path d="M24.5,37v10.5H14V37H24.5 M25,36.5H13.5V48H25V36.5L25,36.5z"/>
		</g>
	</g>
	<g>
		<g>
			<path d="M28.2,46.5h5.1c0.9,0,1.7-0.8,1.7-1.7v-5.1c0-1-0.8-1.7-1.7-1.7h-5.1c-0.9,0-1.7,0.8-1.7,1.7v5.1
				C26.5,45.8,27.3,46.5,28.2,46.5z"/>
		</g>
		<g>
			<path d="M36,37v10.5H25.5V37H36 M36.5,36.5H25V48h11.5V36.5L36.5,36.5z"/>
		</g>
	</g>
	<g>
		<g>
			<path d="M39.7,46.5h5.1c0.9,0,1.7-0.8,1.7-1.7v-5.1c0-1-0.8-1.7-1.7-1.7h-5.1c-0.9,0-1.7,0.8-1.7,1.7v5.1
				C38,45.8,38.8,46.5,39.7,46.5z"/>
		</g>
		<g>
			<path d="M47.5,37v10.5H37V37H47.5 M48,36.5H36.5V48H48V36.5L48,36.5z"/>
		</g>
	</g>
	<g>
		<g>
			<path d="M5.2,35h5.1c0.9,0,1.7-0.8,1.7-1.7v-5.1c0-1-0.8-1.7-1.7-1.7H5.2c-0.9,0-1.7,0.8-1.7,1.7v5.1C3.5,34.2,4.2,35,5.2,35z"/>
		</g>
		<g>
			<path d="M13,25.5V36H2.5V25.5H13 M13.5,25H2v11.5h11.5L13.5,25L13.5,25z"/>
		</g>
	</g>
	<g>
		<g>
			<path d="M16.7,35h5.1c0.9,0,1.7-0.8,1.7-1.7v-5.1c0-1-0.8-1.7-1.7-1.7h-5.1c-0.9,0-1.7,0.8-1.7,1.7v5.1C15,34.2,15.7,35,16.7,35z
				"/>
		</g>
		<g>
			<path d="M24.5,25.5V36H14V25.5H24.5 M25,25H13.5v11.5H25V25L25,25z"/>
		</g>
	</g>
	<g>
		<g>
			<path d="M28.2,35h5.1c0.9,0,1.7-0.8,1.7-1.7v-5.1c0-1-0.8-1.7-1.7-1.7h-5.1c-0.9,0-1.7,0.8-1.7,1.7v5.1
				C26.5,34.2,27.3,35,28.2,35z"/>
		</g>
		<g>
			<path d="M36,25.5V36H25.5V25.5H36 M36.5,25H25v11.5h11.5V25L36.5,25z"/>
		</g>
	</g>
	<g>
		<g>
			<path d="M39.7,35h5.1c0.9,0,1.7-0.8,1.7-1.7v-5.1c0-1-0.8-1.7-1.7-1.7h-5.1c-0.9,0-1.7,0.8-1.7,1.7v5.1C38,34.2,38.8,35,39.7,35z
				"/>
		</g>
		<g>
			<path d="M47.5,25.5V36H37V25.5H47.5 M48,25H36.5v11.5H48V25L48,25z"/>
		</g>
	</g>
	<g>
		<g>
			<path d="M33.5,5v5.5H28V5H33.5 M33.8,3h-6.1C26.7,3,26,3.7,26,4.7v6.1c0,0.9,0.8,1.7,1.7,1.7h6.1c0.9,0,1.7-0.8,1.7-1.7V4.7
				C35.5,3.7,34.7,3,33.8,3L33.8,3z"/>
		</g>
		<g>
			<path d="M36,2.5V13H25.5V2.5H36 M36.5,2H25v11.5h11.5V2L36.5,2z"/>
		</g>
	</g>
	<g>
		<g>
			<path d="M45,5v5.5h-5.5V5H45 M45.3,3h-6.1c-0.9,0-1.7,0.8-1.7,1.7v6.1c0,0.9,0.8,1.7,1.7,1.7h6.1c0.9,0,1.7-0.8,1.7-1.7V4.7
				C47,3.7,46.3,3,45.3,3L45.3,3z"/>
		</g>
		<g>
			<path d="M47.5,2.5V13H37V2.5H47.5 M48,2H36.5v11.5H48V2L48,2z"/>
		</g>
	</g>
	<g>
		<g>
			<path d="M10.5,5v5.5H5V5H10.5 M10.8,3H4.7C3.7,3,3,3.7,3,4.7v6.1c0,0.9,0.8,1.7,1.7,1.7h6.1c0.9,0,1.7-0.8,1.7-1.7V4.7
				C12.5,3.7,11.7,3,10.8,3L10.8,3z"/>
		</g>
		<g>
			<path d="M13,2.5V13H2.5V2.5H13 M13.5,2H2v11.5h11.5L13.5,2L13.5,2z"/>
		</g>
	</g>
</g>
<g>
	<g>
		<path d="M-22,2v46H-68V2H-22 M-21.5,1.5H-22H-68h-0.5V2v46v0.5h0.5H-22h0.5V48V2L-21.5,1.5L-21.5,1.5z"/>
	</g>
	<g>
		<g>
			<path d="M-64.8,23.5h5.1c0.9,0,1.7-0.8,1.7-1.7v-5.1c0-0.9-0.8-1.7-1.7-1.7h-5.1c-1,0-1.7,0.8-1.7,1.7v5.1
				C-66.5,22.7-65.8,23.5-64.8,23.5z"/>
		</g>
		<g>
			<path d="M-57,14v10.5h-10.5V14H-57 M-56.5,13.5H-68V25h11.5L-56.5,13.5L-56.5,13.5z"/>
		</g>
	</g>
	<g>
		<g>
			<path d="M-53.3,23.5h5.1c1,0,1.7-0.8,1.7-1.7v-5.1c0-0.9-0.8-1.7-1.7-1.7h-5.1c-1,0-1.7,0.8-1.7,1.7v5.1
				C-55,22.7-54.3,23.5-53.3,23.5z"/>
		</g>
		<g>
			<path d="M-45.5,14v10.5H-56V14H-45.5 M-45,13.5h-11.5V25H-45V13.5L-45,13.5z"/>
		</g>
	</g>
	<g>
		<g>
			<path d="M-41.8,23.5h5.1c1,0,1.7-0.8,1.7-1.7v-5.1c0-0.9-0.8-1.7-1.7-1.7h-5.1c-1,0-1.7,0.8-1.7,1.7v5.1
				C-43.5,22.7-42.7,23.5-41.8,23.5z"/>
		</g>
		<g>
			<path d="M-34,14v10.5h-10.5V14H-34 M-33.5,13.5H-45V25h11.5L-33.5,13.5L-33.5,13.5z"/>
		</g>
	</g>
	<g>
		<g>
			<path d="M-30.3,23.5h5.1c1,0,1.7-0.8,1.7-1.7v-5.1c0-0.9-0.8-1.7-1.7-1.7h-5.1c-1,0-1.7,0.8-1.7,1.7v5.1
				C-32,22.7-31.2,23.5-30.3,23.5z"/>
		</g>
		<g>
			<path d="M-22.5,14v10.5H-33V14H-22.5 M-22,13.5h-11.5V25H-22L-22,13.5L-22,13.5z"/>
		</g>
	</g>
	<g>
		<g>
			<path d="M-64.8,46.5h5.1c0.9,0,1.7-0.8,1.7-1.7v-5.1c0-1-0.8-1.7-1.7-1.7h-5.1c-1,0-1.7,0.8-1.7,1.7v5.1
				C-66.5,45.8-65.8,46.5-64.8,46.5z"/>
		</g>
		<g>
			<path d="M-57,37v10.5h-10.5V37H-57 M-56.5,36.5H-68V48h11.5L-56.5,36.5L-56.5,36.5z"/>
		</g>
	</g>
	<g>
		<g>
			<path d="M-53.3,46.5h5.1c1,0,1.7-0.8,1.7-1.7v-5.1c0-1-0.8-1.7-1.7-1.7h-5.1c-1,0-1.7,0.8-1.7,1.7v5.1
				C-55,45.8-54.3,46.5-53.3,46.5z"/>
		</g>
		<g>
			<path d="M-45.5,37v10.5H-56V37H-45.5 M-45,36.5h-11.5V48H-45V36.5L-45,36.5z"/>
		</g>
	</g>
	<g>
		<g>
			<path d="M-41.8,46.5h5.1c1,0,1.7-0.8,1.7-1.7v-5.1c0-1-0.8-1.7-1.7-1.7h-5.1c-1,0-1.7,0.8-1.7,1.7v5.1
				C-43.5,45.8-42.7,46.5-41.8,46.5z"/>
		</g>
		<g>
			<path d="M-34,37v10.5h-10.5V37H-34 M-33.5,36.5H-45V48h11.5L-33.5,36.5L-33.5,36.5z"/>
		</g>
	</g>
	<g>
		<g>
			<path d="M-30.3,46.5h5.1c1,0,1.7-0.8,1.7-1.7v-5.1c0-1-0.8-1.7-1.7-1.7h-5.1c-1,0-1.7,0.8-1.7,1.7v5.1
				C-32,45.8-31.2,46.5-30.3,46.5z"/>
		</g>
		<g>
			<path d="M-22.5,37v10.5H-33V37H-22.5 M-22,36.5h-11.5V48H-22L-22,36.5L-22,36.5z"/>
		</g>
	</g>
	<g>
		<g>
			<path d="M-64.8,35h5.1c0.9,0,1.7-0.8,1.7-1.7v-5.1c0-1-0.8-1.7-1.7-1.7h-5.1c-1,0-1.7,0.8-1.7,1.7v5.1
				C-66.5,34.2-65.8,35-64.8,35z"/>
		</g>
		<g>
			<path d="M-57,25.5V36h-10.5V25.5H-57 M-56.5,25H-68v11.5h11.5L-56.5,25L-56.5,25z"/>
		</g>
	</g>
	<g>
		<g>
			<path d="M-53.3,35h5.1c1,0,1.7-0.8,1.7-1.7v-5.1c0-1-0.8-1.7-1.7-1.7h-5.1c-1,0-1.7,0.8-1.7,1.7v5.1C-55,34.2-54.3,35-53.3,35z"
				/>
		</g>
		<g>
			<path d="M-45.5,25.5V36H-56V25.5H-45.5 M-45,25h-11.5v11.5H-45V25L-45,25z"/>
		</g>
	</g>
	<g>
		<g>
			<path d="M-41.8,35h5.1c1,0,1.7-0.8,1.7-1.7v-5.1c0-1-0.8-1.7-1.7-1.7h-5.1c-1,0-1.7,0.8-1.7,1.7v5.1C-43.5,34.2-42.7,35-41.8,35z
				"/>
		</g>
		<g>
			<path d="M-34,25.5V36h-10.5V25.5H-34 M-33.5,25H-45v11.5h11.5L-33.5,25L-33.5,25z"/>
		</g>
	</g>
	<g>
		<g>
			<path d="M-30.3,35h5.1c1,0,1.7-0.8,1.7-1.7v-5.1c0-1-0.8-1.7-1.7-1.7h-5.1c-1,0-1.7,0.8-1.7,1.7v5.1C-32,34.2-31.2,35-30.3,35z"
				/>
		</g>
		<g>
			<path d="M-22.5,25.5V36H-33V25.5H-22.5 M-22,25h-11.5v11.5H-22L-22,25L-22,25z"/>
		</g>
	</g>
	<g>
		<g>
			<path d="M-25.2,4.5c0.4,0,0.7,0.3,0.7,0.7v5.1c0,0.4-0.3,0.7-0.7,0.7h-5.1c-0.4,0-0.7-0.3-0.7-0.7V5.2c0-0.4,0.3-0.7,0.7-0.7
				L-25.2,4.5 M-25.2,3.5h-5.1c-1,0-1.7,0.8-1.7,1.7v5.1c0,0.9,0.8,1.7,1.7,1.7h5.1c1,0,1.7-0.8,1.7-1.7V5.2
				C-23.5,4.2-24.3,3.5-25.2,3.5L-25.2,3.5z"/>
		</g>
		<g>
			<path d="M-22.5,2.5V13H-33V2.5H-22.5 M-22,2h-11.5v11.5H-22L-22,2L-22,2z"/>
		</g>
	</g>
	<g>
		<g>
			<path d="M-36.7,4.5c0.4,0,0.7,0.3,0.7,0.7v5.1c0,0.4-0.3,0.7-0.7,0.7h-5.1c-0.4,0-0.7-0.3-0.7-0.7V5.2c0-0.4,0.3-0.7,0.7-0.7
				L-36.7,4.5 M-36.7,3.5h-5.1c-1,0-1.7,0.8-1.7,1.7v5.1c0,0.9,0.8,1.7,1.7,1.7h5.1c1,0,1.7-0.8,1.7-1.7V5.2
				C-35,4.2-35.8,3.5-36.7,3.5L-36.7,3.5z"/>
		</g>
		<g>
			<path d="M-34,2.5V13h-10.5V2.5H-34 M-33.5,2H-45v11.5h11.5L-33.5,2L-33.5,2z"/>
		</g>
	</g>
	<g>
		<g>
			<path d="M-48.2,4.5c0.4,0,0.7,0.3,0.7,0.7v5.1c0,0.4-0.3,0.7-0.7,0.7h-5.1c-0.4,0-0.7-0.3-0.7-0.7V5.2c0-0.4,0.3-0.7,0.7-0.7
				L-48.2,4.5 M-48.2,3.5h-5.1c-1,0-1.7,0.8-1.7,1.7v5.1c0,0.9,0.8,1.7,1.7,1.7h5.1c1,0,1.7-0.8,1.7-1.7V5.2
				C-46.5,4.2-47.3,3.5-48.2,3.5L-48.2,3.5z"/>
		</g>
		<g>
			<path d="M-45.5,2.5V13H-56V2.5H-45.5 M-45,2h-11.5v11.5H-45V2L-45,2z"/>
		</g>
	</g>
	<g>
		<g>
			<path d="M-59.8,4.5c0.4,0,0.7,0.3,0.7,0.7v5.1c0,0.4-0.3,0.7-0.7,0.7h-5.1c-0.4,0-0.7-0.3-0.7-0.7V5.2c0-0.4,0.3-0.7,0.7-0.7
				L-59.8,4.5 M-59.8,3.5h-5.1c-1,0-1.7,0.8-1.7,1.7v5.1c0,0.9,0.8,1.7,1.7,1.7h5.1c0.9,0,1.7-0.8,1.7-1.7V5.2
				C-58,4.2-58.8,3.5-59.8,3.5L-59.8,3.5z"/>
		</g>
		<g>
			<path d="M-57,2.5V13h-10.5V2.5H-57 M-56.5,2H-68v11.5h11.5L-56.5,2L-56.5,2z"/>
		</g>
	</g>
</g>
</svg>
