<?xml version="1.0" encoding="utf-8"?>
<!-- Generator: Adobe Illustrator 23.0.6, SVG Export Plug-In . SVG Version: 6.00 Build 0)  -->
<svg version="1.1" id="Layer_1" xmlns="http://www.w3.org/2000/svg" xmlns:xlink="http://www.w3.org/1999/xlink" x="0px" y="0px"
	 width="50px" height="50px" viewBox="0 0 50 50" style="enable-background:new 0 0 50 50;" xml:space="preserve">
<style type="text/css">
	.st0{fill:#FFFFFF;}
	.st1{fill:none;stroke:#FFFFFF;stroke-miterlimit:10;}
</style>
<g>
	<g>
		<path class="st0" d="M42.3,2v46H7.7V2H42.3 M42.8,1.5h-0.5H7.7H7.2V2v46v0.5h0.5h34.5h0.5V48V2V1.5L42.8,1.5z"/>
	</g>
	<g>
		<g>
			<path class="st0" d="M17.7,44.8v-5.1c0-1-0.8-1.7-1.7-1.7h-5.1c-0.9,0-1.7,0.8-1.7,1.7v5.1c0,1,0.8,1.7,1.7,1.7H16
				C17,46.5,17.7,45.8,17.7,44.8z"/>
		</g>
		<g>
			<path class="st0" d="M18.7,37v10.5H8.2V37H18.7 M19.2,36.5H7.7V48h11.5V36.5L19.2,36.5z"/>
		</g>
	</g>
	<g>
		<g>
			<path class="st0" d="M17.7,33.3v-5.1c0-1-0.8-1.7-1.7-1.7h-5.1c-0.9,0-1.7,0.8-1.7,1.7v5.1c0,1,0.8,1.7,1.7,1.7H16
				C17,35,17.7,34.2,17.7,33.3z"/>
		</g>
		<g>
			<path class="st0" d="M18.7,25.5V36H8.2V25.5H18.7 M19.2,25H7.7v11.5h11.5V25L19.2,25z"/>
		</g>
	</g>
	<g>
		<g>
			<path class="st0" d="M27.5,39c0.4,0,0.7,0.3,0.7,0.7v5.1c0,0.4-0.3,0.7-0.7,0.7h-5.1c-0.4,0-0.7-0.3-0.7-0.7v-5.1
				c0-0.4,0.3-0.7,0.7-0.7H27.5 M27.5,38h-5.1c-0.9,0-1.7,0.8-1.7,1.7v5.1c0,1,0.8,1.7,1.7,1.7h5.1c0.9,0,1.7-0.8,1.7-1.7v-5.1
				C29.2,38.8,28.5,38,27.5,38L27.5,38z"/>
		</g>
		<g>
			<path class="st0" d="M30.2,37v10.5H19.7V37H30.2 M30.7,36.5H19.2V48h11.5V36.5L30.7,36.5z"/>
		</g>
	</g>
	<g>
		<g>
			<path class="st0" d="M27.5,27.5c0.4,0,0.7,0.3,0.7,0.7v5.1c0,0.4-0.3,0.7-0.7,0.7h-5.1c-0.4,0-0.7-0.3-0.7-0.7v-5.1
				c0-0.4,0.3-0.7,0.7-0.7L27.5,27.5 M27.5,26.5h-5.1c-0.9,0-1.7,0.8-1.7,1.7v5.1c0,1,0.8,1.7,1.7,1.7h5.1c0.9,0,1.7-0.8,1.7-1.7
				v-5.1C29.2,27.3,28.5,26.5,27.5,26.5L27.5,26.5z"/>
		</g>
		<g>
			<path class="st0" d="M30.2,25.5V36H19.7V25.5H30.2 M30.7,25H19.2v11.5h11.5V25L30.7,25z"/>
		</g>
	</g>
	<g>
		<g>
			<path class="st0" d="M17.7,21.8v-5.1c0-0.9-0.8-1.7-1.7-1.7h-5.1c-0.9,0-1.7,0.8-1.7,1.7v5.1c0,1,0.8,1.7,1.7,1.7H16
				C17,23.5,17.7,22.7,17.7,21.8z"/>
		</g>
		<g>
			<path class="st0" d="M18.7,14v10.5H8.2V14H18.7 M19.2,13.5H7.7V25h11.5V13.5L19.2,13.5z"/>
		</g>
	</g>
	<g>
		<g>
			<path class="st0" d="M17.7,10.3V5.2c0-0.9-0.8-1.7-1.7-1.7h-5.1c-0.9,0-1.7,0.8-1.7,1.7v5.1c0,0.9,0.8,1.7,1.7,1.7H16
				C17,12,17.7,11.2,17.7,10.3z"/>
		</g>
		<g>
			<path class="st0" d="M18.7,2.5V13H8.2V2.5H18.7 M19.2,2H7.7v11.5h11.5V2L19.2,2z"/>
		</g>
	</g>
	<g>
		<g>
			<path class="st0" d="M27.5,16c0.4,0,0.7,0.3,0.7,0.7v5.1c0,0.4-0.3,0.7-0.7,0.7h-5.1c-0.4,0-0.7-0.3-0.7-0.7v-5.1
				c0-0.4,0.3-0.7,0.7-0.7L27.5,16 M27.5,15h-5.1c-0.9,0-1.7,0.8-1.7,1.7v5.1c0,1,0.8,1.7,1.7,1.7h5.1c0.9,0,1.7-0.8,1.7-1.7v-5.1
				C29.2,15.8,28.5,15,27.5,15L27.5,15z"/>
		</g>
		<g>
			<path class="st0" d="M30.2,14v10.5H19.7V14H30.2 M30.7,13.5H19.2V25h11.5V13.5L30.7,13.5z"/>
		</g>
	</g>
	<g>
		<g>
			<path class="st0" d="M27.5,4.5c0.4,0,0.7,0.3,0.7,0.7v5.1c0,0.4-0.3,0.7-0.7,0.7h-5.1c-0.4,0-0.7-0.3-0.7-0.7V5.2
				c0-0.4,0.3-0.7,0.7-0.7L27.5,4.5 M27.5,3.5h-5.1c-0.9,0-1.7,0.8-1.7,1.7v5.1c0,0.9,0.8,1.7,1.7,1.7h5.1c0.9,0,1.7-0.8,1.7-1.7
				V5.2C29.2,4.2,28.5,3.5,27.5,3.5L27.5,3.5z"/>
		</g>
		<g>
			<path class="st0" d="M30.2,2.5V13H19.7V2.5H30.2 M30.7,2H19.2v11.5h11.5V2L30.7,2z"/>
		</g>
	</g>
	<g>
		<g>
			<path class="st0" d="M40.8,44.8v-5.1c0-1-0.8-1.7-1.7-1.7H34c-0.9,0-1.7,0.8-1.7,1.7v5.1c0,1,0.8,1.7,1.7,1.7H39
				C40,46.5,40.8,45.8,40.8,44.8z"/>
		</g>
		<g>
			<path class="st0" d="M41.8,37v10.5H31.2V37H41.8 M42.3,36.5H30.7V48h11.5V36.5L42.3,36.5z"/>
		</g>
	</g>
	<g>
		<g>
			<path class="st0" d="M40.8,33.3v-5.1c0-1-0.8-1.7-1.7-1.7H34c-0.9,0-1.7,0.8-1.7,1.7v5.1c0,1,0.8,1.7,1.7,1.7H39
				C40,35,40.8,34.2,40.8,33.3z"/>
		</g>
		<g>
			<path class="st0" d="M41.8,25.5V36H31.2V25.5H41.8 M42.3,25H30.7v11.5h11.5V25L42.3,25z"/>
		</g>
	</g>
	<g>
		<g>
			<path class="st0" d="M40.8,21.8v-5.1c0-0.9-0.8-1.7-1.7-1.7H34c-0.9,0-1.7,0.8-1.7,1.7v5.1c0,1,0.8,1.7,1.7,1.7H39
				C40,23.5,40.8,22.7,40.8,21.8z"/>
		</g>
		<g>
			<path class="st0" d="M41.8,14v10.5H31.2V14H41.8 M42.3,13.5H30.7V25h11.5V13.5L42.3,13.5z"/>
		</g>
	</g>
	<g>
		<g>
			<path class="st0" d="M40.8,10.3V5.2c0-0.9-0.8-1.7-1.7-1.7H34c-0.9,0-1.7,0.8-1.7,1.7v5.1c0,0.9,0.8,1.7,1.7,1.7H39
				C40,12,40.8,11.2,40.8,10.3z"/>
		</g>
		<g>
			<path class="st0" d="M41.8,2.5V13H31.2V2.5H41.8 M42.3,2H30.7v11.5h11.5V2L42.3,2z"/>
		</g>
	</g>
	<path class="st0" d="M27.2,9.3L26.6,10l-1.3-1.3c-0.2-0.2-0.4-0.2-0.6,0L23.4,10l-0.6-0.6L24,8.1c0.2-0.2,0.2-0.4,0-0.6l-1.3-1.3
		l0.6-0.6l1.3,1.3c0.2,0.2,0.4,0.2,0.6,0l1.3-1.3l0.6,0.6l-1.3,1.3c-0.2,0.2-0.2,0.4,0,0.6L27.2,9.3z"/>
	<path class="st0" d="M27.2,20.9l-0.6,0.6l-1.3-1.3c-0.2-0.2-0.4-0.2-0.6,0l-1.3,1.3l-0.6-0.6l1.3-1.3c0.2-0.2,0.2-0.5,0-0.6
		l-1.3-1.3l0.6-0.6l1.3,1.3c0.2,0.2,0.4,0.2,0.6,0l1.3-1.3l0.6,0.6l-1.3,1.3c-0.2,0.2-0.2,0.5,0,0.6L27.2,20.9z"/>
	<path class="st0" d="M27.2,32.4L26.6,33l-1.3-1.3c-0.2-0.2-0.4-0.2-0.6,0L23.4,33l-0.6-0.6l1.3-1.3c0.2-0.2,0.2-0.5,0-0.6l-1.3-1.3
		l0.6-0.6l1.3,1.3c0.2,0.2,0.4,0.2,0.6,0l1.3-1.3l0.6,0.6l-1.3,1.3c-0.2,0.2-0.2,0.5,0,0.6L27.2,32.4z"/>
	<path class="st0" d="M27.2,43.9l-0.6,0.6l-1.3-1.3c-0.2-0.2-0.4-0.2-0.6,0l-1.3,1.3l-0.6-0.6l1.3-1.3c0.2-0.2,0.2-0.5,0-0.6
		l-1.3-1.3l0.6-0.6l1.3,1.3c0.2,0.2,0.4,0.2,0.6,0l1.3-1.3l0.6,0.6L25.9,42c-0.2,0.2-0.2,0.5,0,0.6L27.2,43.9z"/>
</g>
</svg>
